{
    "version": 1, 
    "interactions": [
        {
            "request": {
                "body": null, 
                "headers": {
                    "Connection": [
                        "keep-alive"
                    ], 
                    "Beyonic-Version": [
                        "v2"
                    ], 
                    "Accept-Encoding": [
                        "gzip, deflate"
                    ], 
                    "Accept": [
                        "*/*"
                    ], 
                    "User-Agent": [
                        "python-requests/2.7.0 CPython/2.7.10 Darwin/15.0.0"
                    ]
                }, 
                "method": "GET", 
                "uri": "http://localhost:8000/api/collectionrequests"
            }, 
            "response": {
                "status": {
                    "message": "OK", 
                    "code": 200
                }, 
                "headers": {
                    "content-language": [
                        "en"
                    ], 
                    "vary": [
                        "Accept, Accept-Language, Cookie"
                    ], 
                    "server": [
                        "Werkzeug/0.9.4 Python/2.7.10"
                    ], 
                    "connection": [
                        "close"
                    ], 
                    "allow": [
                        "GET, POST, HEAD, OPTIONS"
                    ], 
                    "date": [
                        "Wed, 11 Nov 2015 05:02:35 GMT"
                    ], 
                    "x-frame-options": [
                        "SAMEORIGIN"
                    ], 
                    "content-type": [
                        "application/json"
                    ]
                }, 
                "body": {
                    "string": "{\"count\":115,\"next\":\"http://localhost:8000/api/collectionrequests?offset=10\",\"previous\":null,\"results\":[{\"id\":116,\"organization\":1,\"amount\":\"3000.0000\",\"currency\":\"UGX\",\"phonenumber\":\"+256772781923\",\"reason\":\"\",\"metadata\":{},\"created\":\"2015-11-11T05:02:35Z\",\"author\":42,\"modified\":\"2015-11-11T05:02:35Z\",\"updated_by\":42,\"collection\":null,\"success_message\":\"\",\"instructions\":null,\"send_instructions\":null},{\"id\":115,\"organization\":1,\"amount\":\"3000.0000\",\"currency\":\"UGX\",\"phonenumber\":\"+256772781923\",\"reason\":\"\",\"metadata\":{},\"created\":\"2015-11-11T05:02:26Z\",\"author\":42,\"modified\":\"2015-11-11T05:02:26Z\",\"updated_by\":42,\"collection\":null,\"success_message\":\"\",\"instructions\":null,\"send_instructions\":null},{\"id\":114,\"organization\":1,\"amount\":\"3000.0000\",\"currency\":\"UGX\",\"phonenumber\":\"+256772781923\",\"reason\":\"\",\"metadata\":{},\"created\":\"2015-11-11T05:00:14Z\",\"author\":42,\"modified\":\"2015-11-11T05:00:14Z\",\"updated_by\":42,\"collection\":null,\"success_message\":\"\",\"instructions\":null,\"send_instructions\":null},{\"id\":113,\"organization\":1,\"amount\":\"3000.0000\",\"currency\":\"UGX\",\"phonenumber\":\"+256772781923\",\"reason\":\"\",\"metadata\":{},\"created\":\"2015-11-11T03:09:09Z\",\"author\":42,\"modified\":\"2015-11-11T03:09:09Z\",\"updated_by\":42,\"collection\":null,\"success_message\":\"\",\"instructions\":null,\"send_instructions\":null},{\"id\":112,\"organization\":1,\"amount\":\"3000.0000\",\"currency\":\"UGX\",\"phonenumber\":\"+256772781923\",\"reason\":\"\",\"metadata\":{},\"created\":\"2015-11-11T03:04:54Z\",\"author\":42,\"modified\":\"2015-11-11T03:04:54Z\",\"updated_by\":42,\"collection\":null,\"success_message\":\"\",\"instructions\":null,\"send_instructions\":null},{\"id\":111,\"organization\":1,\"amount\":\"3000.0000\",\"currency\":\"UGX\",\"phonenumber\":\"+256772781923\",\"reason\":\"\",\"metadata\":{},\"created\":\"2015-11-11T03:01:50Z\",\"author\":42,\"modified\":\"2015-11-11T03:01:50Z\",\"updated_by\":42,\"collection\":null,\"success_message\":\"\",\"instructions\":null,\"send_instructions\":null},{\"id\":110,\"organization\":1,\"amount\":\"3000.0000\",\"currency\":\"UGX\",\"phonenumber\":\"+256772781923\",\"reason\":\"\",\"metadata\":{},\"created\":\"2015-11-11T03:00:53Z\",\"author\":42,\"modified\":\"2015-11-11T03:00:53Z\",\"updated_by\":42,\"collection\":null,\"success_message\":\"\",\"instructions\":null,\"send_instructions\":null},{\"id\":109,\"organization\":1,\"amount\":\"3000.0000\",\"currency\":\"UGX\",\"phonenumber\":\"+256772781923\",\"reason\":\"\",\"metadata\":{},\"created\":\"2015-11-11T03:00:30Z\",\"author\":42,\"modified\":\"2015-11-11T03:00:30Z\",\"updated_by\":42,\"collection\":null,\"success_message\":\"\",\"instructions\":null,\"send_instructions\":null},{\"id\":108,\"organization\":1,\"amount\":\"3000.0000\",\"currency\":\"UGX\",\"phonenumber\":\"+256772781923\",\"reason\":\"\",\"metadata\":{},\"created\":\"2015-11-11T02:54:53Z\",\"author\":42,\"modified\":\"2015-11-11T02:54:53Z\",\"updated_by\":42,\"collection\":null,\"success_message\":\"\",\"instructions\":null,\"send_instructions\":null},{\"id\":107,\"organization\":1,\"amount\":\"3000.0000\",\"currency\":\"UGX\",\"phonenumber\":\"+256772781923\",\"reason\":\"\",\"metadata\":{},\"created\":\"2015-11-11T02:53:18Z\",\"author\":42,\"modified\":\"2015-11-11T02:53:18Z\",\"updated_by\":42,\"collection\":null,\"success_message\":\"\",\"instructions\":null,\"send_instructions\":null}]}"
                }
            }
        }
    ]
}