{
    "version": 1, 
    "interactions": [
        {
            "request": {
                "body": null, 
                "headers": {
                    "Connection": [
                        "keep-alive"
                    ], 
                    "Beyonic-Version": [
                        "v2"
                    ], 
                    "Accept-Encoding": [
                        "gzip, deflate"
                    ], 
                    "Accept": [
                        "*/*"
                    ], 
                    "User-Agent": [
                        "python-requests/2.7.0 CPython/2.7.10 Darwin/15.0.0"
                    ]
                }, 
                "method": "GET", 
                "uri": "http://localhost:8000/api/webhooks"
            }, 
            "response": {
                "status": {
                    "message": "OK", 
                    "code": 200
                }, 
                "headers": {
                    "content-language": [
                        "en"
                    ], 
                    "vary": [
                        "Accept, Accept-Language, Cookie"
                    ], 
                    "server": [
                        "Werkzeug/0.9.4 Python/2.7.10"
                    ], 
                    "connection": [
                        "close"
                    ], 
                    "allow": [
                        "GET, POST, HEAD, OPTIONS"
                    ], 
                    "date": [
                        "Wed, 11 Nov 2015 05:02:34 GMT"
                    ], 
                    "x-frame-options": [
                        "SAMEORIGIN"
                    ], 
                    "content-type": [
                        "application/json"
                    ]
                }, 
                "body": {
                    "string": "{\"count\":162,\"next\":\"http://localhost:8000/api/webhooks?offset=10\",\"previous\":null,\"results\":[{\"id\":52,\"created\":\"2015-08-01T16:43:43Z\",\"updated\":\"2015-11-11T05:02:26Z\",\"event\":\"payment.status.changed\",\"target\":\"https://mysite.com/callbacks/payment/saved/1\",\"user\":42},{\"id\":53,\"created\":\"2015-08-01T16:56:29Z\",\"updated\":\"2015-08-01T16:56:29Z\",\"event\":\"payment.status.changed\",\"target\":\"https://my.callback.url/\",\"user\":42},{\"id\":55,\"created\":\"2015-08-01T16:56:29Z\",\"updated\":\"2015-08-01T16:56:29Z\",\"event\":\"payment.status.changed\",\"target\":\"https://google.com\",\"user\":42},{\"id\":56,\"created\":\"2015-08-01T16:57:37Z\",\"updated\":\"2015-08-01T16:57:37Z\",\"event\":\"payment.status.changed\",\"target\":\"https://my.callback.url/\",\"user\":42},{\"id\":58,\"created\":\"2015-08-01T17:05:38Z\",\"updated\":\"2015-08-01T17:05:38Z\",\"event\":\"payment.status.changed\",\"target\":\"https://my.callback.url/\",\"user\":42},{\"id\":59,\"created\":\"2015-08-10T15:59:03Z\",\"updated\":\"2015-08-10T15:59:03Z\",\"event\":\"payment.status.changed\",\"target\":\"https://my.website/payments/callback\",\"user\":42},{\"id\":60,\"created\":\"2015-08-10T15:59:05Z\",\"updated\":\"2015-08-10T15:59:05Z\",\"event\":\"payment.status.changed\",\"target\":\"https://my.callback.url/\",\"user\":42},{\"id\":61,\"created\":\"2015-08-10T15:59:05Z\",\"updated\":\"2015-08-10T15:59:05Z\",\"event\":\"payment.status.changed\",\"target\":\"https://my.callback.url/\",\"user\":42},{\"id\":62,\"created\":\"2015-08-10T15:59:05Z\",\"updated\":\"2015-08-10T15:59:05Z\",\"event\":\"payment.status.changed\",\"target\":\"https://my.callback.url/\",\"user\":42},{\"id\":63,\"created\":\"2015-08-10T15:59:05Z\",\"updated\":\"2015-08-10T15:59:05Z\",\"event\":\"payment.status.changed\",\"target\":\"https://my.callback.url/\",\"user\":42}]}"
                }
            }
        }
    ]
}